<?xml version="1.0" encoding="UTF-8" standalone="no"?>
<!-- Created with Inkscape (http://www.inkscape.org/) -->

<svg
   xmlns:dc="http://purl.org/dc/elements/1.1/"
   xmlns:cc="http://creativecommons.org/ns#"
   xmlns:rdf="http://www.w3.org/1999/02/22-rdf-syntax-ns#"
   xmlns:svg="http://www.w3.org/2000/svg"
   xmlns="http://www.w3.org/2000/svg"
   xmlns:sodipodi="http://sodipodi.sourceforge.net/DTD/sodipodi-0.dtd"
   xmlns:inkscape="http://www.inkscape.org/namespaces/inkscape"
   width="744.09448819"
   height="1052.3622047"
   id="svg2"
   version="1.1"
   inkscape:version="0.48.4 r9939"
   sodipodi:docname="nanoPlayCheat.svg">
  <defs
     id="defs4" />
  <sodipodi:namedview
     id="base"
     pagecolor="#ffffff"
     bordercolor="#666666"
     borderopacity="1.0"
     inkscape:pageopacity="0.0"
     inkscape:pageshadow="2"
     inkscape:zoom="0.44851479"
     inkscape:cx="372.04724"
     inkscape:cy="526.18109"
     inkscape:document-units="px"
     inkscape:current-layer="layer1"
     showgrid="false"
     showguides="true"
     inkscape:guide-bbox="true"
     inkscape:window-width="1248"
     inkscape:window-height="686"
     inkscape:window-x="11"
     inkscape:window-y="37"
     inkscape:window-maximized="0">
    <sodipodi:guide
       orientation="1,0"
       position="30.534095,793.88648"
       id="guide3632" />
    <sodipodi:guide
       orientation="1,0"
       position="62.340445,736.63505"
       id="guide3634" />
    <sodipodi:guide
       orientation="1,0"
       position="402.03226,206.10514"
       id="guide3740" />
  </sodipodi:namedview>
  <metadata
     id="metadata7">
    <rdf:RDF>
      <cc:Work
         rdf:about="">
        <dc:format>image/svg+xml</dc:format>
        <dc:type
           rdf:resource="http://purl.org/dc/dcmitype/StillImage" />
        <dc:title></dc:title>
      </cc:Work>
    </rdf:RDF>
  </metadata>
  <g
     inkscape:label="Layer 1"
     inkscape:groupmode="layer"
     id="layer1">
    <rect
       style="fill:#5499ff;fill-opacity:1;fill-rule:nonzero;stroke:#00112b;stroke-width:0.93050307000000021"
       id="rect3017-3-2-7"
       width="353.27979"
       height="188.88918"
       x="180.64198"
       y="844.6153" />
    <rect
       style="fill:#5499ff;fill-opacity:1;fill-rule:nonzero;stroke:#00112b"
       id="rect3573"
       width="722.64026"
       height="171.75429"
       x="10.178032"
       y="155.42313" />
    <rect
       style="fill:#de8787;fill-opacity:1;fill-rule:nonzero;stroke:#280b0b;stroke-width:1.49976134"
       id="rect3017-3-2-9"
       width="352.71054"
       height="491.49167"
       x="381.10382"
       y="340.39227" />
    <rect
       style="fill:#de8787;fill-opacity:1;fill-rule:nonzero;stroke:#280b0b;stroke-width:1.49839318"
       id="rect3017-3-2"
       width="352.71188"
       height="490.59341"
       x="11.865287"
       y="341.19464" />
    <flowRoot
       xml:space="preserve"
       id="flowRoot2985"
       style="font-size:17.57588387px;font-style:normal;font-variant:normal;font-weight:bold;font-stretch:normal;text-align:center;line-height:125%;letter-spacing:0px;word-spacing:0px;text-anchor:middle;fill:#000000;fill-opacity:1;stroke:none;font-family:OpenSymbol;-inkscape-font-specification:Sans Bold"
       transform="matrix(3.4137687,0,0,3.4137687,-9.3854957,-153.42906)"><flowRegion
         id="flowRegion2987"><rect
           id="rect2989"
           width="157.68759"
           height="27.012772"
           x="37.142857"
           y="46.647896"
           style="font-size:17.57588387px" /></flowRegion><flowPara
         id="flowPara2991">NanoPlayBoard</flowPara></flowRoot>    <text
       xml:space="preserve"
       style="font-size:45px;font-style:normal;font-variant:normal;font-weight:bold;font-stretch:normal;text-align:center;line-height:125%;letter-spacing:0px;word-spacing:0px;text-anchor:middle;fill:#000000;fill-opacity:1;stroke:none;font-family:OpenSymbol;-inkscape-font-specification:Sans Bold"
       x="381.06296"
       y="124.86204"
       id="text2993"
       sodipodi:linespacing="125%"><tspan
         sodipodi:role="line"
         id="tspan2995"
         x="381.06296"
         y="124.86204">Cheat sheet</tspan></text>
    <text
       xml:space="preserve"
       style="font-size:30px;font-style:normal;font-variant:normal;font-weight:bold;font-stretch:normal;text-align:center;line-height:125%;letter-spacing:0px;word-spacing:0px;text-anchor:middle;fill:#000000;fill-opacity:1;stroke:none;font-family:OpenSymbol;-inkscape-font-specification:Sans Bold"
       x="622.62054"
       y="336.91272"
       id="text2997"
       sodipodi:linespacing="125%"
       transform="scale(0.894791,1.1175794)"><tspan
         sodipodi:role="line"
         x="622.62054"
         y="336.91272"
         id="tspan3001">Salida</tspan></text>
    <text
       xml:space="preserve"
       style="font-size:20px;font-style:normal;font-variant:normal;font-weight:bold;font-stretch:normal;text-align:center;line-height:125%;letter-spacing:0px;word-spacing:0px;text-anchor:middle;fill:#000000;fill-opacity:1;stroke:none;font-family:OpenSymbol;-inkscape-font-specification:Sans Bold"
       x="165.86496"
       y="375.40851"
       id="text3005"
       sodipodi:linespacing="125%"><tspan
         sodipodi:role="line"
         id="tspan3007"
         x="165.86496"
         y="375.40851"
         style="font-size:30px">Entrada</tspan></text>
    <text
       xml:space="preserve"
       style="font-size:20px;font-style:normal;font-variant:normal;font-weight:bold;font-stretch:normal;text-align:start;line-height:125%;letter-spacing:0px;word-spacing:0px;text-anchor:start;fill:#000000;fill-opacity:1;stroke:none;font-family:OpenSymbol;-inkscape-font-specification:Sans Bold"
       x="30.62468"
       y="406.83704"
       id="text3009"
       sodipodi:linespacing="125%"><tspan
         sodipodi:role="line"
         x="30.62468"
         y="406.83704"
         id="tspan3013">Potentiometer</tspan></text>
    <text
       xml:space="preserve"
       style="font-size:20px;font-style:normal;font-variant:normal;font-weight:bold;font-stretch:normal;text-align:center;line-height:125%;letter-spacing:0px;word-spacing:0px;text-anchor:middle;fill:#000000;fill-opacity:1;stroke:none;font-family:OpenSymbol;-inkscape-font-specification:Sans Bold"
       x="63.174118"
       y="435.60434"
       id="text3019"
       sodipodi:linespacing="125%"><tspan
         sodipodi:role="line"
         id="tspan3021"
         x="63.174118"
         y="435.60434"
         style="font-size:14px;text-align:start;text-anchor:start">board.potentiometer.read();</tspan></text>
    <text
       xml:space="preserve"
       style="font-size:20px;font-style:normal;font-variant:normal;font-weight:bold;font-stretch:normal;text-align:start;line-height:125%;letter-spacing:0px;word-spacing:0px;text-anchor:start;fill:#000000;fill-opacity:1;stroke:none;font-family:OpenSymbol;-inkscape-font-specification:Sans Bold"
       x="63.174118"
       y="457.39597"
       id="text3023"
       sodipodi:linespacing="125%"><tspan
         sodipodi:role="line"
         id="tspan3025"
         x="63.174118"
         y="457.39597"
         style="font-size:14px">board.potentiometer.scaleTo(m,M);</tspan></text>
    <text
       xml:space="preserve"
       style="font-size:20px;font-style:normal;font-variant:normal;font-weight:bold;font-stretch:normal;text-align:start;line-height:125%;letter-spacing:0px;word-spacing:0px;text-anchor:start;fill:#000000;fill-opacity:1;stroke:none;font-family:OpenSymbol;-inkscape-font-specification:Sans Bold"
       x="32.587059"
       y="489.78229"
       id="text3027"
       sodipodi:linespacing="125%"><tspan
         sodipodi:role="line"
         id="tspan3029"
         x="32.587059"
         y="489.78229">LDR</tspan></text>
    <text
       xml:space="preserve"
       style="font-size:20px;font-style:normal;font-variant:normal;font-weight:bold;font-stretch:normal;text-align:center;line-height:129.99999523%;letter-spacing:0px;word-spacing:0px;text-anchor:middle;fill:#000000;fill-opacity:1;stroke:none;font-family:OpenSymbol;-inkscape-font-specification:Sans Bold"
       x="62.274506"
       y="508.56482"
       id="text3019-3"
       sodipodi:linespacing="130%"><tspan
         sodipodi:role="line"
         id="tspan3021-6"
         x="62.274506"
         y="508.56482"
         style="font-size:14px;text-align:start;line-height:129.99999523%;text-anchor:start">board.ldr.read();</tspan><tspan
         sodipodi:role="line"
         x="62.274506"
         y="527.70874"
         style="font-size:14px;text-align:start;line-height:129.99999523%;text-anchor:start"
         id="tspan3571">board.ldr.scaleTo(m,M);</tspan></text>
    <text
       xml:space="preserve"
       style="font-size:20px;font-style:normal;font-variant:normal;font-weight:bold;font-stretch:normal;text-align:start;line-height:125%;letter-spacing:0px;word-spacing:0px;text-anchor:start;fill:#000000;fill-opacity:1;stroke:none;font-family:OpenSymbol;-inkscape-font-specification:Sans Bold"
       x="400.73215"
       y="407.01727"
       id="text3099"
       sodipodi:linespacing="125%"><tspan
         sodipodi:role="line"
         id="tspan3101"
         x="400.73215"
         y="407.01727">Buzzer</tspan></text>
    <text
       xml:space="preserve"
       style="font-size:20px;font-style:normal;font-variant:normal;font-weight:bold;font-stretch:normal;text-align:center;line-height:125%;letter-spacing:0px;word-spacing:0px;text-anchor:middle;fill:#000000;fill-opacity:1;stroke:none;font-family:OpenSymbol;-inkscape-font-specification:Sans Bold"
       x="425.92151"
       y="428.59531"
       id="text3019-5"
       sodipodi:linespacing="125%"><tspan
         sodipodi:role="line"
         id="tspan3021-62"
         x="425.92151"
         y="428.59531"
         style="font-size:14px;text-align:start;text-anchor:start">board.buzzer.playTone(int);</tspan></text>
    <text
       xml:space="preserve"
       style="font-size:20px;font-style:normal;font-variant:normal;font-weight:bold;font-stretch:normal;text-align:start;line-height:125%;letter-spacing:0px;word-spacing:0px;text-anchor:start;fill:#000000;fill-opacity:1;stroke:none;font-family:OpenSymbol;-inkscape-font-specification:Sans Bold"
       x="402.5314"
       y="471.88644"
       id="text3124"
       sodipodi:linespacing="125%"><tspan
         sodipodi:role="line"
         id="tspan3126"
         x="402.5314"
         y="471.88644">RGB</tspan></text>
    <text
       xml:space="preserve"
       style="font-size:20px;font-style:normal;font-variant:normal;font-weight:bold;font-stretch:normal;text-align:center;line-height:129.99999523%;letter-spacing:0px;word-spacing:0px;text-anchor:middle;fill:#000000;fill-opacity:1;stroke:none;font-family:OpenSymbol;-inkscape-font-specification:Sans Bold"
       x="425.92151"
       y="494.26749"
       id="text3019-5-9"
       sodipodi:linespacing="130%"><tspan
         sodipodi:role="line"
         id="tspan3021-62-1"
         x="425.92151"
         y="494.26749"
         style="font-size:14px;text-align:start;line-height:129.99999523%;text-anchor:start">board.rgb.on();</tspan><tspan
         sodipodi:role="line"
         x="425.92151"
         y="513.41144"
         style="font-size:14px;text-align:start;line-height:129.99999523%;text-anchor:start"
         id="tspan3492">board.rgb.setColor(#rrggbb);</tspan><tspan
         sodipodi:role="line"
         x="425.92151"
         y="532.55536"
         style="font-size:14px;text-align:start;line-height:129.99999523%;text-anchor:start"
         id="tspan3494">board.rgb.setColor(r,g,b);</tspan><tspan
         sodipodi:role="line"
         x="425.92151"
         y="551.69934"
         style="font-size:14px;text-align:start;line-height:129.99999523%;text-anchor:start"
         id="tspan3496">board.rgb.setIntensity(i);</tspan><tspan
         sodipodi:role="line"
         x="425.92151"
         y="570.84326"
         style="font-size:14px;text-align:start;line-height:129.99999523%;text-anchor:start"
         id="tspan3498">board.rgb.toggle();</tspan></text>
    <text
       xml:space="preserve"
       style="font-size:20px;font-style:normal;font-variant:normal;font-weight:bold;font-stretch:normal;text-align:start;line-height:125%;letter-spacing:0px;word-spacing:0px;text-anchor:start;fill:#000000;fill-opacity:1;stroke:none;font-family:OpenSymbol;-inkscape-font-specification:Sans Bold"
       x="400.73215"
       y="598.8161"
       id="text3124-6"
       sodipodi:linespacing="125%"><tspan
         sodipodi:role="line"
         id="tspan3126-1"
         x="400.73215"
         y="598.8161">Led matrix</tspan></text>
    <text
       xml:space="preserve"
       style="font-size:20.03362656px;font-style:normal;font-variant:normal;font-weight:bold;font-stretch:normal;text-align:center;line-height:129.99999523%;letter-spacing:0px;word-spacing:0px;text-anchor:middle;fill:#000000;fill-opacity:1;stroke:none;font-family:OpenSymbol;-inkscape-font-specification:Sans Bold"
       x="426.6376"
       y="620.71094"
       id="text3019-5-9-8"
       sodipodi:linespacing="130%"
       transform="scale(0.99832152,1.0016813)"><tspan
         sodipodi:role="line"
         id="tspan3021-62-1-79"
         x="426.6376"
         y="620.71094"
         style="font-size:14.02353859px;text-align:start;line-height:129.99999523%;text-anchor:start"
         dy="0">board.ledmatrix.print(&quot;&quot;);</tspan><tspan
         sodipodi:role="line"
         x="426.6376"
         y="639.88708"
         style="font-size:14.02353859px;text-align:start;line-height:129.99999523%;text-anchor:start"
         id="tspan3272">board.ledmatrix.print(char);</tspan><tspan
         sodipodi:role="line"
         x="426.6376"
         y="659.06323"
         style="font-size:14.02353859px;text-align:start;line-height:129.99999523%;text-anchor:start"
         id="tspan3278">board.ledmatrix.print(pattern);</tspan><tspan
         sodipodi:role="line"
         x="426.6376"
         y="678.23932"
         style="font-size:14.02353859px;text-align:start;line-height:129.99999523%;text-anchor:start"
         id="tspan3276">board.ledmatrix.pintInLandscape(&quot;&quot;);</tspan><tspan
         sodipodi:role="line"
         x="426.6376"
         y="697.41547"
         style="font-size:14.02353859px;text-align:start;line-height:129.99999523%;text-anchor:start"
         id="tspan3274">board.ledmatrix.setScrollSpeed(int);</tspan></text>
    <text
       xml:space="preserve"
       style="font-size:20px;font-style:normal;font-variant:normal;font-weight:bold;font-stretch:normal;text-align:start;line-height:125%;letter-spacing:0px;word-spacing:0px;text-anchor:start;fill:#000000;fill-opacity:1;stroke:none;font-family:OpenSymbol;-inkscape-font-specification:Sans Bold"
       x="31.687447"
       y="554.64795"
       id="text3027-0"
       sodipodi:linespacing="125%"><tspan
         sodipodi:role="line"
         id="tspan3029-2"
         x="31.687447"
         y="554.64795">Rotary encoder</tspan></text>
    <text
       xml:space="preserve"
       style="font-size:20px;font-style:normal;font-variant:normal;font-weight:bold;font-stretch:normal;text-align:start;line-height:125%;letter-spacing:0px;word-spacing:0px;text-anchor:start;fill:#000000;fill-opacity:1;stroke:none;font-family:OpenSymbol;-inkscape-font-specification:Sans Bold"
       x="62.274506"
       y="577.83557"
       id="text3023-7-3"
       sodipodi:linespacing="125%"><tspan
         sodipodi:role="line"
         id="tspan3025-5-7"
         x="62.274506"
         y="577.83557"
         style="font-size:14px">board.rotaryencoder.getPosition();</tspan></text>
    <text
       xml:space="preserve"
       style="font-size:20px;font-style:normal;font-variant:normal;font-weight:bold;font-stretch:normal;text-align:start;line-height:125%;letter-spacing:0px;word-spacing:0px;text-anchor:start;fill:#000000;fill-opacity:1;stroke:none;font-family:OpenSymbol;-inkscape-font-specification:Sans Bold"
       x="400.73215"
       y="728.53711"
       id="text3124-6-2"
       sodipodi:linespacing="125%"><tspan
         sodipodi:role="line"
         id="tspan3126-1-2"
         x="400.73215"
         y="728.53711">Servo</tspan><tspan
         sodipodi:role="line"
         x="400.73215"
         y="753.53711"
         id="tspan3397" /></text>
    <text
       xml:space="preserve"
       style="font-size:20px;font-style:normal;font-variant:normal;font-weight:bold;font-stretch:normal;text-align:center;line-height:129.99999523%;letter-spacing:0px;word-spacing:0px;text-anchor:middle;fill:#000000;fill-opacity:1;stroke:none;font-family:OpenSymbol;-inkscape-font-specification:Sans Bold"
       x="425.92151"
       y="751.55872"
       id="text3019-5-9-0-0-8"
       sodipodi:linespacing="130%"><tspan
         sodipodi:role="line"
         id="tspan3021-62-1-9-62-9"
         x="425.92151"
         y="751.55872"
         style="font-size:14px;text-align:start;line-height:129.99999523%;text-anchor:start">board.servo[1].to(p);</tspan><tspan
         sodipodi:role="line"
         x="425.92151"
         y="770.70264"
         style="font-size:14px;text-align:start;line-height:129.99999523%;text-anchor:start"
         id="tspan3420">board.servo[2].to(p);</tspan></text>
    <text
       xml:space="preserve"
       style="font-size:20px;font-style:normal;font-variant:normal;font-weight:bold;font-stretch:normal;text-align:start;line-height:125%;letter-spacing:0px;word-spacing:0px;text-anchor:start;fill:#000000;fill-opacity:1;stroke:none;font-family:OpenSymbol;-inkscape-font-specification:Sans Bold"
       x="33.486679"
       y="611.3692"
       id="text3027-0-7"
       sodipodi:linespacing="125%"><tspan
         sodipodi:role="line"
         id="tspan3029-2-3"
         x="33.486679"
         y="611.3692">Accelerometer</tspan></text>
    <text
       xml:space="preserve"
       style="font-size:20px;font-style:normal;font-variant:normal;font-weight:bold;font-stretch:normal;text-align:start;line-height:129.99999523%;letter-spacing:0px;word-spacing:0px;text-anchor:start;fill:#000000;fill-opacity:1;stroke:none;font-family:OpenSymbol;-inkscape-font-specification:Sans Bold"
       x="62.274506"
       y="631.00964"
       id="text3023-7-3-6"
       sodipodi:linespacing="130%"><tspan
         sodipodi:role="line"
         id="tspan3025-5-7-1"
         x="62.274506"
         y="631.00964"
         style="font-size:14px;line-height:129.99999523%">board.accelerometer.getX();</tspan><tspan
         sodipodi:role="line"
         x="62.274506"
         y="650.15356"
         style="font-size:14px;line-height:129.99999523%"
         id="tspan3464">board.accelerometer.getY();</tspan><tspan
         sodipodi:role="line"
         x="62.274506"
         y="669.29755"
         style="font-size:14px;line-height:129.99999523%"
         id="tspan3466">board.accelerometer.getZ();</tspan></text>
    <text
       xml:space="preserve"
       style="font-size:20px;font-style:normal;font-variant:normal;font-weight:bold;font-stretch:normal;text-align:start;line-height:125%;letter-spacing:0px;word-spacing:0px;text-anchor:start;fill:#000000;fill-opacity:1;stroke:none;font-family:OpenSymbol;-inkscape-font-specification:Sans Bold"
       x="400.73215"
       y="796.73236"
       id="text3124-6-2-2"
       sodipodi:linespacing="125%"><tspan
         sodipodi:role="line"
         id="tspan3126-1-2-9"
         x="400.73215"
         y="796.73236">Ultrasound</tspan><tspan
         sodipodi:role="line"
         x="400.73215"
         y="821.73236"
         id="tspan3397-3" /></text>
    <text
       xml:space="preserve"
       style="font-size:20px;font-style:normal;font-variant:normal;font-weight:bold;font-stretch:normal;text-align:center;line-height:125%;letter-spacing:0px;word-spacing:0px;text-anchor:middle;fill:#000000;fill-opacity:1;stroke:none;font-family:OpenSymbol;-inkscape-font-specification:Sans Bold"
       x="425.92151"
       y="818.13049"
       id="text3019-5-1"
       sodipodi:linespacing="125%"><tspan
         sodipodi:role="line"
         id="tspan3021-62-9"
         x="425.92151"
         y="818.13049"
         style="font-size:14px;text-align:start;text-anchor:start">board.ultrasound.pingCm();</tspan></text>
    <text
       xml:space="preserve"
       style="font-size:20px;font-style:normal;font-variant:normal;font-weight:bold;font-stretch:normal;text-align:start;line-height:125%;letter-spacing:0px;word-spacing:0px;text-anchor:start;fill:#000000;fill-opacity:1;stroke:none;font-family:OpenSymbol;-inkscape-font-specification:Sans Bold"
       x="33.486679"
       y="694.3515"
       id="text3027-0-7-4"
       sodipodi:linespacing="125%"><tspan
         sodipodi:role="line"
         id="tspan3029-2-3-7"
         x="33.486679"
         y="694.3515">Buttons</tspan></text>
    <text
       xml:space="preserve"
       style="font-size:20px;font-style:normal;font-variant:normal;font-weight:bold;font-stretch:normal;text-align:start;line-height:129.99999523%;letter-spacing:0px;word-spacing:0px;text-anchor:start;fill:#000000;fill-opacity:1;stroke:none;font-family:OpenSymbol;-inkscape-font-specification:Sans Bold"
       x="62.274506"
       y="715.15863"
       id="text3023-7-3-6-8"
       sodipodi:linespacing="130%"><tspan
         sodipodi:role="line"
         id="tspan3025-5-7-1-4"
         x="62.274506"
         y="715.15863"
         style="font-size:14px;line-height:129.99999523%">board.buttons.left.isPressed();</tspan><tspan
         sodipodi:role="line"
         x="62.274506"
         y="734.30255"
         style="font-size:14px;line-height:129.99999523%"
         id="tspan3464-5">board.buttons.right.isPressed();</tspan><tspan
         sodipodi:role="line"
         x="62.274506"
         y="753.44653"
         style="font-size:14px;line-height:129.99999523%"
         id="tspan3466-0">board.buttons.up.isPressed();</tspan><tspan
         sodipodi:role="line"
         x="62.274506"
         y="772.59045"
         style="font-size:14px;line-height:129.99999523%"
         id="tspan3569">board.buttons.down.isPressed();</tspan></text>
    <text
       xml:space="preserve"
       style="font-size:20px;font-style:normal;font-variant:normal;font-weight:bold;font-stretch:normal;text-align:start;line-height:125%;letter-spacing:0px;word-spacing:0px;text-anchor:start;fill:#000000;fill-opacity:1;stroke:none;font-family:OpenSymbol;-inkscape-font-specification:Sans Bold"
       x="62.340446"
       y="206.1358"
       id="text3009-3"
       sodipodi:linespacing="125%"><tspan
         sodipodi:role="line"
         x="62.340446"
         y="206.1358"
         id="tspan3013-6"
         style="font-size:14px">#include &lt;NanoPlayBoard.h&gt;</tspan><tspan
         sodipodi:role="line"
         x="62.340446"
         y="224.54344"
         id="tspan3607"
         style="font-size:14px">NanoPlayBoard board;</tspan></text>
    <text
       xml:space="preserve"
       style="font-size:20px;font-style:normal;font-variant:normal;font-weight:bold;font-stretch:normal;text-align:start;line-height:125%;letter-spacing:0px;word-spacing:0px;text-anchor:start;fill:#000000;fill-opacity:1;stroke:none;font-family:OpenSymbol;-inkscape-font-specification:Sans Bold"
       x="30.534096"
       y="182.50751"
       id="text3009-6"
       sodipodi:linespacing="125%"><tspan
         sodipodi:role="line"
         x="30.534096"
         y="182.50751"
         id="tspan3013-3">NanoPlayBoard</tspan></text>
    <text
       xml:space="preserve"
       style="font-size:20px;font-style:normal;font-variant:normal;font-weight:bold;font-stretch:normal;text-align:start;line-height:125%;letter-spacing:0px;word-spacing:0px;text-anchor:start;fill:#000000;fill-opacity:1;stroke:none;font-family:OpenSymbol;-inkscape-font-specification:Sans Bold"
       x="26.931776"
       y="297.73712"
       id="text3009-6-2"
       sodipodi:linespacing="125%"><tspan
         sodipodi:role="line"
         x="26.931776"
         y="297.73712"
         id="tspan3013-3-0">Bluetooth</tspan></text>
    <text
       xml:space="preserve"
       style="font-size:20px;font-style:normal;font-variant:normal;font-weight:bold;font-stretch:normal;text-align:start;line-height:125%;letter-spacing:0px;word-spacing:0px;text-anchor:start;fill:#000000;fill-opacity:1;stroke:none;font-family:OpenSymbol;-inkscape-font-specification:Sans Bold"
       x="62.340446"
       y="316.1633"
       id="text3009-3-6"
       sodipodi:linespacing="125%"><tspan
         sodipodi:role="line"
         x="62.340446"
         y="316.1633"
         id="tspan3607-5"
         style="font-size:14px">board.bluetooth.begin(vel);</tspan></text>
    <text
       xml:space="preserve"
       style="font-size:20px;font-style:normal;font-variant:normal;font-weight:bold;font-stretch:normal;text-align:start;line-height:125%;letter-spacing:0px;word-spacing:0px;text-anchor:start;fill:#000000;fill-opacity:1;stroke:none;font-family:OpenSymbol;-inkscape-font-specification:Sans Bold"
       x="30.534096"
       y="252.47571"
       id="text3009-6-2-5"
       sodipodi:linespacing="125%"><tspan
         sodipodi:role="line"
         x="30.534096"
         y="252.47571"
         id="tspan3013-3-0-4">Serial</tspan></text>
    <text
       xml:space="preserve"
       style="font-size:20px;font-style:normal;font-variant:normal;font-weight:bold;font-stretch:normal;text-align:start;line-height:125%;letter-spacing:0px;word-spacing:0px;text-anchor:start;fill:#000000;fill-opacity:1;stroke:none;font-family:OpenSymbol;-inkscape-font-specification:Sans Bold"
       x="65.942764"
       y="270.90189"
       id="text3009-3-6-7"
       sodipodi:linespacing="125%"><tspan
         sodipodi:role="line"
         x="65.942764"
         y="270.90189"
         id="tspan3607-5-6"
         style="font-size:14px">Serial.begin(vel);</tspan></text>
    <text
       xml:space="preserve"
       style="font-size:20px;font-style:normal;font-variant:normal;font-weight:bold;font-stretch:normal;text-align:start;line-height:125%;letter-spacing:0px;word-spacing:0px;text-anchor:start;fill:#000000;fill-opacity:1;stroke:none;font-family:OpenSymbol;-inkscape-font-specification:Sans Bold"
       x="247.30859"
       y="872.67499"
       id="text3124-6-2-2-5"
       sodipodi:linespacing="125%"><tspan
         sodipodi:role="line"
         id="tspan3126-1-2-9-6"
         x="247.30859"
         y="872.67499">Serial</tspan><tspan
         sodipodi:role="line"
         x="247.30859"
         y="897.67499"
         id="tspan3397-3-9" /></text>
    <text
       xml:space="preserve"
       style="font-size:20px;font-style:normal;font-variant:normal;font-weight:bold;font-stretch:normal;text-align:center;line-height:125%;letter-spacing:0px;word-spacing:0px;text-anchor:middle;fill:#000000;fill-opacity:1;stroke:none;font-family:OpenSymbol;-inkscape-font-specification:Sans Bold"
       x="272.49796"
       y="894.07312"
       id="text3019-5-1-3"
       sodipodi:linespacing="125%"><tspan
         sodipodi:role="line"
         id="tspan3021-62-9-7"
         x="272.49796"
         y="894.07312"
         style="font-size:14px;text-align:start;text-anchor:start">Serial.println(&quot;&quot;);</tspan><tspan
         sodipodi:role="line"
         x="272.49796"
         y="912.48077"
         style="font-size:14px;text-align:start;text-anchor:start"
         id="tspan3772">Serial.read();</tspan><tspan
         sodipodi:role="line"
         x="272.49796"
         y="930.88843"
         style="font-size:14px;text-align:start;text-anchor:start"
         id="tspan3776">Serial.available();</tspan></text>
    <text
       xml:space="preserve"
       style="font-size:20px;font-style:normal;font-variant:normal;font-weight:bold;font-stretch:normal;text-align:start;line-height:125%;letter-spacing:0px;word-spacing:0px;text-anchor:start;fill:#000000;fill-opacity:1;stroke:none;font-family:OpenSymbol;-inkscape-font-specification:Sans Bold"
       x="245.54501"
       y="962.20123"
       id="text3124-6-2-2-5-4"
       sodipodi:linespacing="125%"><tspan
         sodipodi:role="line"
         id="tspan3126-1-2-9-6-5"
         x="245.54501"
         y="962.20123">Bluetooth</tspan><tspan
         sodipodi:role="line"
         x="245.54501"
         y="987.20123"
         id="tspan3397-3-9-2" /></text>
    <text
       xml:space="preserve"
       style="font-size:20px;font-style:normal;font-variant:normal;font-weight:bold;font-stretch:normal;text-align:center;line-height:125%;letter-spacing:0px;word-spacing:0px;text-anchor:middle;fill:#000000;fill-opacity:1;stroke:none;font-family:OpenSymbol;-inkscape-font-specification:Sans Bold"
       x="270.73438"
       y="983.59937"
       id="text3019-5-1-3-5"
       sodipodi:linespacing="125%"><tspan
         sodipodi:role="line"
         id="tspan3021-62-9-7-4"
         x="270.73438"
         y="983.59937"
         style="font-size:14px;text-align:start;text-anchor:start">board.bluetooth.println(&quot;&quot;);</tspan><tspan
         sodipodi:role="line"
         x="270.73438"
         y="1002.007"
         style="font-size:14px;text-align:start;text-anchor:start"
         id="tspan3774">board.bluetooth.read();</tspan></text>
  </g>
</svg>
